…
#Wrangling
finaldata %>% filter(Clap=="Right")

## # A tibble: 1,458 x 39
##    Wr.Hnd NW.Hnd W.Hnd Fold  Pulse Clap  Exer  Height M.I     Age Sex   Smoke
##     <dbl>  <dbl> <fct> <fct> <int> <fct> <fct>  <dbl> <fct> <dbl> <chr> <fct>
##  1     20   20   Right Neit…    35 Right Some    165  Metr…  23.7 fema… <NA> 
##  2     20   20   Right Neit…    35 Right Some    165  Metr…  23.7 male  Never
##  3     18   17.7 Right L on…    64 Right Some    173. Impe…  21   fema… Never
##  4     18   17.7 Right L on…    64 Right Some    173. Impe…  21   fema… Never
##  5     18   17.7 Right L on…    64 Right Some    173. Impe…  21   fema… Never
##  6     18   17.7 Right L on…    64 Right Some    173. Impe…  21   fema… Never
##  7     18   17.7 Right L on…    64 Right Some    173. Impe…  21   fema… Never
##  8     18   17.7 Right L on…    64 Right Some    173. Impe…  21   fema… Never
##  9     18   17.7 Right L on…    64 Right Some    173. Impe…  21   fema… Never
## 10     18   17.7 Right L on…    64 Right Some    173. Impe…  21   fema… Never
## # … with 1,448 more rows, and 27 more variables: eyes <fct>, piercings <int>,
## #   pierced <fct>, tattoos <int>, tattooed <fct>, glasses <fct>, sleep <int>,
## #   study <int>, tv <int>, movies <int>, movies3m <fct>, sport <fct>,
## #   entertainment <fct>, fruit <fct>, income <dbl>, rent <dbl>, clothes <dbl>,
## #   hair <dbl>, tobacco <int>, smokes <fct>, alcohol <dbl>, buy.alcohol <fct>,
## #   sendtxt <int>, receivetxt <int>, txts <fct>, country <fct>, status <fct>

finaldata %>% arrange(Pulse)

## # A tibble: 2,516 x 39
##    Wr.Hnd NW.Hnd W.Hnd Fold  Pulse Clap  Exer  Height M.I     Age Sex   Smoke
##     <dbl>  <dbl> <fct> <fct> <int> <fct> <fct>  <dbl> <fct> <dbl> <chr> <fct>
##  1   20     20   Right Neit…    35 Right Some    165  Metr…  23.7 fema… <NA> 
##  2   20     20   Right Neit…    35 Right Some    165  Metr…  23.7 male  Never
##  3   16.5   17   Right L on…    40 Left  Freq    168. Impe…  17.4 fema… Never
##  4   16.5   17   Right L on…    40 Left  Freq    168. Impe…  17.4 male  <NA> 
##  5   18     17.5 Right R on…    48 Neit… Freq    165  Metr…  18.7 fema… Never
##  6   18     17.5 Right R on…    48 Neit… Freq    165  Metr…  18.7 male  <NA> 
##  7   21     21   Right L on…    48 Neit… Freq    174  Metr…  21.3 fema… <NA> 
##  8   21     21   Right L on…    48 Neit… Freq    174  Metr…  21.3 male  Never
##  9   18     17.9 Right R on…    50 Left  None    165  Metr…  30.8 fema… Never
## 10   18     17.9 Right R on…    50 Left  None    165  Metr…  30.8 male  <NA> 
## # … with 2,506 more rows, and 27 more variables: eyes <fct>, piercings <int>,
## #   pierced <fct>, tattoos <int>, tattooed <fct>, glasses <fct>, sleep <int>,
## #   study <int>, tv <int>, movies <int>, movies3m <fct>, sport <fct>,
## #   entertainment <fct>, fruit <fct>, income <dbl>, rent <dbl>, clothes <dbl>,
## #   hair <dbl>, tobacco <int>, smokes <fct>, alcohol <dbl>, buy.alcohol <fct>,
## #   sendtxt <int>, receivetxt <int>, txts <fct>, country <fct>, status <fct>
…
finaldata %>% dplyr::select(5,6)

## # A tibble: 2,516 x 2
##    Pulse Clap   
##    <int> <fct>  
##  1    92 Left   
##  2    92 Left   
##  3   104 Left   
##  4   104 Left   
##  5    87 Neither
##  6    87 Neither
##  7    NA Neither
##  8    NA Neither
##  9    35 Right  
## 10    35 Right  
## # … with 2,506 more rows

finaldata %>% mutate(writpul=Wr.Hnd/Pulse)

## # A tibble: 2,516 x 40
##    Wr.Hnd NW.Hnd W.Hnd Fold  Pulse Clap  Exer  Height M.I     Age Sex   Smoke
##     <dbl>  <dbl> <fct> <fct> <int> <fct> <fct>  <dbl> <fct> <dbl> <chr> <fct>
##  1   18.5   18   Right R on…    92 Left  Some    173  Metr…  18.2 fema… Never
##  2   18.5   18   Right R on…    92 Left  Some    173  Metr…  18.2 male  <NA> 
##  3   19.5   20.5 Left  R on…   104 Left  None    178. Impe…  17.6 fema… <NA> 
##  4   19.5   20.5 Left  R on…   104 Left  None    178. Impe…  17.6 male  Regul
##  5   18     13.3 Right L on…    87 Neit… None     NA  <NA>   16.9 fema… <NA> 
##  6   18     13.3 Right L on…    87 Neit… None     NA  <NA>   16.9 male  Occas
##  7   18.8   18.9 Right R on…    NA Neit… None    160  Metr…  20.3 fema… <NA> 
##  8   18.8   18.9 Right R on…    NA Neit… None    160  Metr…  20.3 male  Never
##  9   20     20   Right Neit…    35 Right Some    165  Metr…  23.7 fema… <NA> 
## 10   20     20   Right Neit…    35 Right Some    165  Metr…  23.7 male  Never
## # … with 2,506 more rows, and 28 more variables: eyes <fct>, piercings <int>,
## #   pierced <fct>, tattoos <int>, tattooed <fct>, glasses <fct>, sleep <int>,
## #   study <int>, tv <int>, movies <int>, movies3m <fct>, sport <fct>,
## #   entertainment <fct>, fruit <fct>, income <dbl>, rent <dbl>, clothes <dbl>,
## #   hair <dbl>, tobacco <int>, smokes <fct>, alcohol <dbl>, buy.alcohol <fct>,
## #   sendtxt <int>, receivetxt <int>, txts <fct>, country <fct>, status <fct>,
## #   writpul <dbl>
…
